C:\Users\Administrator\Arbkrav\Porsjekt\WarGame\src\main\java\BattleSimulation\Battle.java
C:\Users\Administrator\Arbkrav\Porsjekt\WarGame\src\main\java\SpecificUnits\CavalryUnit.java
C:\Users\Administrator\Arbkrav\Porsjekt\WarGame\src\main\java\BattleSimulation\Army.java
C:\Users\Administrator\Arbkrav\Porsjekt\WarGame\src\main\java\SpecificUnits\Unit.java
C:\Users\Administrator\Arbkrav\Porsjekt\WarGame\src\main\java\SpecificUnits\InfantryUnit.java
C:\Users\Administrator\Arbkrav\Porsjekt\WarGame\src\main\java\SpecificUnits\RangedUnit.java
C:\Users\Administrator\Arbkrav\Porsjekt\WarGame\src\main\java\SpecificUnits\CommanderUnit.java
C:\Users\Administrator\Arbkrav\Porsjekt\WarGame\src\main\java\GameHub.java
